module gitlab.com/ricmaco/muchdoge

go 1.17

require (
	github.com/aybabtme/rgbterm v0.0.0-20170906152045-cc83f3b3ce59 // indirect
	github.com/mattn/go-isatty v0.0.14 // indirect
	github.com/nfnt/resize v0.0.0-20180221191011-83c6a9932646 // indirect
	github.com/qeesung/image2ascii v1.0.1 // indirect
	github.com/wayneashleyberry/terminal-dimensions v1.1.0 // indirect
	golang.org/x/sys v0.0.0-20210630005230-0f9fa26af87c // indirect
)
